{
  "\n": 24,
  "\r": 23,
  " ": 0,
  "!": 89,
  "\"": 48,
  "$": 81,
  "%": 75,
  "&": 82,
  "'": 35,
  "(": 58,
  ")": 59,
  ",": 25,
  "-": 27,
  ".": 22,
  "/": 87,
  "0": 32,
  "1": 50,
  "2": 33,
  "3": 60,
  "4": 68,
  "5": 44,
  "6": 83,
  "7": 80,
  "8": 73,
  "9": 69,
  ":": 55,
  ";": 61,
  "?": 86,
  "A": 31,
  "B": 42,
  "C": 40,
  "D": 47,
  "E": 36,
  "F": 49,
  "G": 64,
  "H": 57,
  "I": 30,
  "J": 70,
  "K": 77,
  "L": 62,
  "M": 43,
  "N": 56,
  "O": 51,
  "P": 46,
  "Q": 78,
  "R": 52,
  "S": 38,
  "T": 28,
  "U": 67,
  "V": 63,
  "W": 39,
  "X": 74,
  "Y": 53,
  "[": 84,
  "]": 85,
  "_": 54,
  "a": 4,
  "b": 20,
  "c": 11,
  "d": 12,
  "e": 1,
  "f": 19,
  "g": 15,
  "h": 10,
  "i": 3,
  "j": 45,
  "k": 26,
  "l": 9,
  "m": 14,
  "n": 6,
  "o": 5,
  "p": 16,
  "q": 41,
  "r": 7,
  "s": 8,
  "t": 2,
  "u": 13,
  "v": 21,
  "w": 17,
  "x": 29,
  "y": 18,
  "z": 37,
  "\u00b0": 88,
  "\u2013": 65,
  "\u2014": 66,
  "\u2018": 76,
  "\u2019": 34,
  "\u201c": 71,
  "\u201d": 72,
  "\u2026": 79
}